<?xml version="1.0" encoding="UTF-8" standalone="no"?>
<!-- Created with Inkscape (http://www.inkscape.org/) -->

<svg
   xmlns:dc="http://purl.org/dc/elements/1.1/"
   xmlns:cc="http://creativecommons.org/ns#"
   xmlns:rdf="http://www.w3.org/1999/02/22-rdf-syntax-ns#"
   xmlns:svg="http://www.w3.org/2000/svg"
   xmlns="http://www.w3.org/2000/svg"
   xmlns:sodipodi="http://sodipodi.sourceforge.net/DTD/sodipodi-0.dtd"
   xmlns:inkscape="http://www.inkscape.org/namespaces/inkscape"
   width="148.85783mm"
   height="62.978313mm"
   viewBox="0 0 148.85784 62.978312"
   version="1.1"
   id="svg8"
   inkscape:version="0.92.4 5da689c313, 2019-01-14"
   sodipodi:docname="blindsign.svg"
   inkscape:export-filename="/home/tux/hhu/02_Project/images/blindsign.png"
   inkscape:export-xdpi="96"
   inkscape:export-ydpi="96">
  <defs
     id="defs2" />
  <sodipodi:namedview
     id="base"
     pagecolor="#ffffff"
     bordercolor="#666666"
     borderopacity="1.0"
     inkscape:pageopacity="0.0"
     inkscape:pageshadow="2"
     inkscape:zoom="0.73940797"
     inkscape:cx="316.67252"
     inkscape:cy="-295.32608"
     inkscape:document-units="mm"
     inkscape:current-layer="layer1"
     showgrid="false"
     inkscape:window-width="1887"
     inkscape:window-height="1054"
     inkscape:window-x="33"
     inkscape:window-y="0"
     inkscape:window-maximized="1"
     inkscape:snap-global="false"
     fit-margin-top="0"
     fit-margin-left="0"
     fit-margin-right="0"
     fit-margin-bottom="0"
     showguides="true"
     inkscape:guide-bbox="true" />
  <metadata
     id="metadata5">
    <rdf:RDF>
      <cc:Work
         rdf:about="">
        <dc:format>image/svg+xml</dc:format>
        <dc:type
           rdf:resource="http://purl.org/dc/dcmitype/StillImage" />
        <dc:title></dc:title>
      </cc:Work>
    </rdf:RDF>
  </metadata>
  <g
     inkscape:label="Ebene 1"
     inkscape:groupmode="layer"
     id="layer1"
     transform="translate(-21.21373,-7.3833251)">
    <rect
       style="opacity:1;fill:#aaeeff;fill-opacity:1;stroke:none;stroke-width:1.04212344;stroke-miterlimit:4;stroke-dasharray:none;stroke-dashoffset:0;stroke-opacity:1"
       id="rect954-6-2"
       width="36.205727"
       height="46.791676"
       x="53.034275"
       y="9.7635374"
       ry="0.61780995" />
    <rect
       style="opacity:1;fill:#aaeeff;fill-opacity:1;stroke:none;stroke-width:0.58334517;stroke-miterlimit:4;stroke-dasharray:none;stroke-dashoffset:0;stroke-opacity:1"
       id="rect954"
       width="38.251747"
       height="13.877379"
       x="104.27383"
       y="53.263783"
       ry="0.18322881" />
    <path
       style="fill:#f9f9f9;stroke:#000000;stroke-width:0.0978554px;stroke-linecap:butt;stroke-linejoin:miter;stroke-opacity:1"
       d="m 106.33525,55.684865 -2.77152,-4.163982 -0.0616,1.651233 -13.118546,0.502549 -0.123178,4.9537 13.303314,-0.143583 0.0616,1.723021 z"
       id="path988-1"
       inkscape:connector-curvature="0"
       sodipodi:nodetypes="cccccccc" />
    <rect
       style="opacity:1;fill:#aaeeff;fill-opacity:1;stroke:none;stroke-width:0.81666833;stroke-miterlimit:4;stroke-dasharray:none;stroke-dashoffset:0;stroke-opacity:1"
       id="rect954-6"
       width="29.533905"
       height="35.227192"
       x="113.20621"
       y="9.6695728"
       ry="0.46511927" />
    <path
       style="fill:#f9f9f9;stroke:#000000;stroke-width:0.13091044px;stroke-linecap:butt;stroke-linejoin:miter;stroke-opacity:1"
       d="m 114.14811,35.11644 -4.00308,-5.159537 -0.089,2.046024 -18.947959,0.622702 -0.177916,6.138071 19.214835,-0.177915 0.089,2.134981 z"
       id="path988"
       inkscape:connector-curvature="0"
       sodipodi:nodetypes="cccccccc" />
    <text
       xml:space="preserve"
       style="font-style:normal;font-weight:normal;font-size:2.09456706px;line-height:3.27276111px;font-family:sans-serif;letter-spacing:0px;word-spacing:0px;fill:#000000;fill-opacity:1;stroke:none;stroke-width:0.13091044"
       x="53.956425"
       y="17.535929"
       id="text817"><tspan
         sodipodi:role="line"
         id="tspan815"
         x="53.956425"
         y="17.535929"
         style="stroke-width:0.13091044">m=Nachricht oder Psydonym</tspan></text>
    <text
       xml:space="preserve"
       style="font-style:normal;font-weight:normal;font-size:2.09456706px;line-height:3.27276111px;font-family:sans-serif;letter-spacing:0px;word-spacing:0px;fill:#000000;fill-opacity:1;stroke:none;stroke-width:0.13091044"
       x="53.955559"
       y="20.719318"
       id="text821"><tspan
         sodipodi:role="line"
         id="tspan819"
         x="53.955559"
         y="20.719318"
         style="stroke-width:0.13091044">h(m)</tspan></text>
    <text
       xml:space="preserve"
       style="font-style:normal;font-weight:normal;font-size:2.09456706px;line-height:3.27276111px;font-family:sans-serif;letter-spacing:0px;word-spacing:0px;fill:#000000;fill-opacity:1;stroke:none;stroke-width:0.13091044"
       x="53.86747"
       y="35.218143"
       id="text825"><tspan
         sodipodi:role="line"
         id="tspan823"
         x="53.86747"
         y="35.218143"
         style="stroke-width:0.13091044">symEnc(h(m))</tspan></text>
    <text
       xml:space="preserve"
       style="font-style:normal;font-weight:normal;font-size:2.09456706px;line-height:3.27276111px;font-family:sans-serif;text-align:center;letter-spacing:0px;word-spacing:0px;text-anchor:middle;fill:#000000;fill-opacity:1;stroke:none;stroke-width:0.13091044"
       x="127.66178"
       y="36.690674"
       id="text829"><tspan
         sodipodi:role="line"
         id="tspan827"
         x="127.66178"
         y="36.690674"
         style="text-align:center;text-anchor:middle;stroke-width:0.13091044">Du darfst!</tspan><tspan
         sodipodi:role="line"
         x="127.66178"
         y="39.963436"
         style="text-align:center;text-anchor:middle;stroke-width:0.13091044"
         id="tspan924">priv(m`)</tspan></text>
    <text
       xml:space="preserve"
       style="font-style:normal;font-weight:normal;font-size:2.09456706px;line-height:3.27276134px;font-family:sans-serif;letter-spacing:0px;word-spacing:0px;fill:#000000;fill-opacity:1;stroke:none;stroke-width:0.13091044"
       x="53.850819"
       y="47.899891"
       id="text829-7"><tspan
         sodipodi:role="line"
         id="tspan827-5"
         x="53.850819"
         y="47.899891"
         style="stroke-width:0.13091044">s=symDec(s`)</tspan><tspan
         sodipodi:role="line"
         x="53.850819"
         y="51.172653"
         style="stroke-width:0.13091044"
         id="tspan869">s=symDec(priv(symEnc(h(m))))</tspan><tspan
         sodipodi:role="line"
         x="53.850819"
         y="54.445412"
         style="stroke-width:0.13091044"
         id="tspan867">s=priv(h(m))</tspan></text>
    <text
       xml:space="preserve"
       style="font-style:normal;font-weight:normal;font-size:2.09456706px;line-height:3.27276111px;font-family:sans-serif;letter-spacing:0px;word-spacing:0px;fill:#000000;fill-opacity:1;stroke:none;stroke-width:0.13091044"
       x="95.84079"
       y="34.673122"
       id="text873"><tspan
         sodipodi:role="line"
         id="tspan871"
         x="95.84079"
         y="34.673122"
         style="stroke-width:0.13091044">persönlich</tspan><tspan
         sodipodi:role="line"
         x="95.84079"
         y="37.945885"
         style="stroke-width:0.13091044"
         id="tspan922">m`</tspan></text>
    <text
       xml:space="preserve"
       style="font-style:normal;font-weight:normal;font-size:2.09456706px;line-height:3.27276111px;font-family:sans-serif;letter-spacing:0px;word-spacing:0px;fill:#000000;fill-opacity:1;stroke:none;stroke-width:0.13091044"
       x="125.47436"
       y="18.369278"
       id="text900"><tspan
         sodipodi:role="line"
         id="tspan898"
         x="125.47436"
         y="18.369278"
         style="stroke-width:0.13091044">pub()</tspan></text>
    <text
       xml:space="preserve"
       style="font-style:normal;font-weight:normal;font-size:2.09456706px;line-height:3.27276134px;font-family:sans-serif;letter-spacing:0px;word-spacing:0px;fill:#000000;fill-opacity:1;stroke:none;stroke-width:0.13091044"
       x="53.834591"
       y="26.945345"
       id="text825-3"><tspan
         sodipodi:role="line"
         id="tspan823-5"
         x="53.834591"
         y="26.945345"
         style="stroke-width:0.13091044">baue mir passende</tspan><tspan
         sodipodi:role="line"
         x="53.834591"
         y="30.218105"
         style="stroke-width:0.13091044"
         id="tspan920">symEnc() und symDec()</tspan></text>
    <text
       xml:space="preserve"
       style="font-style:normal;font-weight:normal;font-size:3.23238468px;line-height:5.05060101px;font-family:sans-serif;letter-spacing:0px;word-spacing:0px;fill:#000000;fill-opacity:1;stroke:none;stroke-width:0.20202404"
       x="126.19808"
       y="12.941668"
       id="text928"
       transform="scale(0.95450221,1.0476665)"><tspan
         sodipodi:role="line"
         id="tspan926"
         x="126.19808"
         y="12.941668"
         style="stroke-width:0.20202404">Institution A</tspan></text>
    <text
       xml:space="preserve"
       style="font-style:normal;font-weight:normal;font-size:3.39401793px;line-height:5.30315304px;font-family:sans-serif;letter-spacing:0px;word-spacing:0px;fill:#000000;fill-opacity:1;stroke:none;stroke-width:0.21212612"
       x="56.159355"
       y="12.654931"
       id="text932"
       transform="scale(0.96359666,1.0377786)"><tspan
         sodipodi:role="line"
         id="tspan930"
         x="56.159355"
         y="12.654931"
         style="stroke-width:0.21212612">Ich</tspan></text>
    <text
       xml:space="preserve"
       style="font-style:normal;font-weight:normal;font-size:2.09456706px;line-height:3.27276111px;font-family:sans-serif;letter-spacing:0px;word-spacing:0px;fill:#000000;fill-opacity:1;stroke:none;stroke-width:0.13091044"
       x="95.420677"
       y="56.399673"
       id="text936"><tspan
         sodipodi:role="line"
         id="tspan934"
         x="95.420677"
         y="56.399673"
         style="stroke-width:0.13091044">m,s</tspan></text>
    <text
       xml:space="preserve"
       style="font-style:normal;font-weight:normal;font-size:2.09456706px;line-height:3.27276111px;font-family:sans-serif;letter-spacing:0px;word-spacing:0px;fill:#000000;fill-opacity:1;stroke:none;stroke-width:0.13091044"
       x="105.9724"
       y="61.527977"
       id="text940"><tspan
         sodipodi:role="line"
         id="tspan938"
         x="105.9724"
         y="61.527977"
         style="stroke-width:0.13091044">ist s = pub(h(m)) ?</tspan><tspan
         sodipodi:role="line"
         x="105.9724"
         y="64.800735"
         style="stroke-width:0.13091044"
         id="tspan942">m darf [nicht] verwendet werden</tspan></text>
    <text
       xml:space="preserve"
       style="font-style:normal;font-weight:normal;font-size:2.87626266px;line-height:4.49416018px;font-family:sans-serif;letter-spacing:0px;word-spacing:0px;fill:#000000;fill-opacity:1;stroke:none;stroke-width:0.17976642"
       x="127.87029"
       y="54.97789"
       id="text946"
       transform="scale(0.97438593,1.0262874)"><tspan
         sodipodi:role="line"
         id="tspan944"
         x="127.87029"
         y="54.97789"
         style="stroke-width:0.17976642">Institution B</tspan></text>
    <path
       style="fill:none;stroke:#000000;stroke-width:0.17976642px;stroke-linecap:butt;stroke-linejoin:miter;stroke-opacity:1"
       d="m 124.82302,57.151122 h 16.90193"
       id="path948"
       inkscape:connector-curvature="0" />
    <path
       style="fill:none;stroke:#000000;stroke-width:0.20202404px;stroke-linecap:butt;stroke-linejoin:miter;stroke-opacity:1"
       d="m 120.58841,14.610781 h 18.47598"
       id="path950"
       inkscape:connector-curvature="0" />
    <path
       style="fill:none;stroke:#000000;stroke-width:0.21212614px;stroke-linecap:butt;stroke-linejoin:miter;stroke-opacity:1"
       d="m 53.923854,14.077843 h 7.917222"
       id="path952"
       inkscape:connector-curvature="0" />
    <path
       style="fill:#f9f9f9;stroke:#000000;stroke-width:0.13091044px;stroke-linecap:butt;stroke-linejoin:miter;stroke-opacity:1"
       d="m 88.795216,30.40169 -6.671818,-2.312897 4.092048,-4.625792 0.711661,2.312897 34.604483,-9.429501 0.97853,2.57977 -35.049268,8.450966 z"
       id="path986"
       inkscape:connector-curvature="0"
       sodipodi:nodetypes="cccccccc" />
    <path
       style="fill:#f9f9f9;stroke:#000000;stroke-width:0.10721163px;stroke-linecap:butt;stroke-linejoin:miter;stroke-opacity:1"
       d="m 88.295126,44.655721 4.093048,3.45416 0.05639,-1.369753 18.973086,-0.416882 0.08,-4.109259 -19.247557,0.119109 -0.123288,-1.429308 z"
       id="path988-2"
       inkscape:connector-curvature="0"
       sodipodi:nodetypes="cccccccc" />
    <text
       xml:space="preserve"
       style="font-style:normal;font-weight:normal;font-size:2.09456706px;line-height:3.27276111px;font-family:sans-serif;letter-spacing:0px;word-spacing:0px;fill:#000000;fill-opacity:1;stroke:none;stroke-width:0.13091044"
       x="96.015213"
       y="45.005733"
       id="text877"><tspan
         sodipodi:role="line"
         id="tspan875"
         x="96.015213"
         y="45.005733"
         style="stroke-width:0.13091044">s`</tspan></text>
  </g>
</svg>
